Read Data from the vespa-db Database • vespadbImportR
…
Installation

You can install the development version of vespadbImportR from GitHub with:

# install.packages("pak")
pak::pak("inbo/vespadbImportR")

Examples

There are two options to get data out of vespa-db. The fastest way is to fetch the most recent export file. This file is generated every day at around 4AM Brussels time.

library(vespadbImportR)
get_vespadb_export()
#> # A tibble: 23,200 × 27
#>       id observation_datetime latitude longitude province     municipality anb  
#>    <dbl> <dttm>                  <dbl>     <dbl> <chr>        <chr>        <lgl>
#>  1 14861 2025-04-11 10:59:00      51.0      3.38 West-Vlaand… Wingene      FALSE
#>  2 14862 2025-04-11 00:00:00      51.1      4.62 Antwerpen    Nijlen       FALSE
#>  3 14863 2025-04-11 11:14:00      51.2      4.43 Antwerpen    Antwerpen    FALSE
#>  4 14865 2025-04-10 13:57:00      50.9      2.90 West-Vlaand… Ieper        FALSE
#>  5 14866 2025-04-10 00:00:00      51.2      3.20 West-Vlaand… Brugge       FALSE
#>  6 14867 2025-04-10 20:29:00      50.8      4.92 Vlaams Brab… Tienen       FALSE
#>  7 14868 2025-04-10 20:01:00      51.1      3.56 Oost-Vlaand… Lievegem     FALSE
#>  8 14869 2025-04-10 18:53:00      50.9      5.38 Limburg      Hasselt      FALSE
#>  9 14870 2025-04-10 17:40:00      51.1      4.46 Antwerpen    Kontich      FALSE
#> 10 14871 2025-04-10 16:07:00      50.9      4.36 Vlaams Brab… Grimbergen   FALSE
#> # ℹ 23,190 more rows
#> # ℹ 20 more variables: nest_status <chr>, eradication_date <date>,
#> #   eradication_result <chr>, images <chr>, nest_type <chr>,
#> #   nest_location <chr>, nest_height <chr>, nest_size <chr>,
#> #   queen_present <lgl>, moth_present <lgl>, duplicate_nest <lgl>,
#> #   other_species_nest <lgl>, notes <lgl>, source <chr>, source_id <dbl>,
#> #   wn_id <dbl>, wn_validation_status <chr>, wn_cluster_id <dbl>, …

Alternativly you can also send queries to the database direclty and get live data back. This is much slower.

get_vespadb_obs(
  municipality_id = 32,
  min_observation_datetime = "2025-07-01T00:00:00",
  max_observation_datetime = "2025-07-25T00:00:00"
)
#> # A tibble: 36 × 30
#>       id created_datetime    modified_datetime   location$type source  source_id
#>    <int> <chr>               <chr>               <chr>         <chr>   <lgl>    
#>  1 40399 2025-07-03T04:00:31 2025-07-03T04:00:34 Point         Waarne… NA       
#>  2 40466 2025-07-04T04:00:05 2025-07-04T04:00:10 Point         Waarne… NA       
#>  3 40881 2025-07-08T02:00:19 2025-07-08T02:00:21 Point         Waarne… NA       
#>  4 41064 2025-07-10T02:00:11 2025-07-29T11:11:37 Point         Waarne… NA       
#>  5 40612 2025-07-06T02:00:08 2025-07-25T00:13:13 Point         Waarne… NA       
#>  6 40604 2025-07-06T02:00:08 2025-07-06T02:00:11 Point         Waarne… NA       
#>  7 41066 2025-07-10T02:00:11 2025-07-22T14:09:04 Point         Waarne… NA       
#>  8 41061 2025-07-10T02:00:11 2025-07-22T14:13:14 Point         Waarne… NA       
#>  9 41074 2025-07-10T02:00:14 2025-07-10T02:00:17 Point         Waarne… NA       
#> 10 41047 2025-07-10T02:00:10 2025-07-10T02:00:11 Point         Waarne… NA       
#> # ℹ 26 more rows
#> # ℹ 25 more variables: location$coordinates <list>, nest_height <chr>,
#> #   nest_size <chr>, nest_location <chr>, nest_type <chr>,
#> #   observation_datetime <chr>, eradication_date <chr>, municipality <int>,
#> #   queen_present <lgl>, moth_present <lgl>, province <int>, images <list>,
#> #   municipality_name <chr>, notes <lgl>, eradication_result <chr>,
#> #   wn_id <int>, wn_validation_status <chr>, anb <lgl>, visible <lgl>, …
…
You can also get an overview of the municipality codes, or query a municipality code directly with the function municipalities:

municipalities("Leuven")
#> [1] 32
municipalities(c("Hasselt", "Leuven"))
#> [1] 174  32

municipalities()
#> # A tibble: 285 × 2
#>    municipality    id
#>    <chr>        <int>
#>  1 Aalst          138
#>  2 Aalter         195
#>  3 Aarschot        95
#>  4 Aartselaar       4
#>  5 Affligem        27
#>  6 Alken          116
#>  7 Alveringem     294
#>  8 Antwerpen      271
#>  9 Anzegem        126
#> 10 Ardooie         10
#> # ℹ 275 more rows
…
