…
## Examples

There are two options to get data out of vespa-db. The fastest way is to
fetch the most recent export file. This file is generated every day at
around 4AM Brussels time.

``` r
library(vespadbImportR)
get_vespadb_export_s3()
#> Warning: One or more parsing issues, call `problems()` on your data frame for details,
#> e.g.:
#>   dat <- vroom(...)
#>   problems(dat)
#> # A tibble: 22,653 × 27
#>       id observation_datetime latitude longitude province     municipality anb  
#>    <dbl> <dttm>                  <dbl>     <dbl> <chr>        <chr>        <lgl>
#>  1 14861 2025-04-11 10:59:00      51.0      3.38 West-Vlaand… Wingene      FALSE
#>  2 14862 2025-04-11 00:00:00      51.1      4.62 Antwerpen    Nijlen       FALSE
#>  3 14863 2025-04-11 11:14:00      51.2      4.43 Antwerpen    Antwerpen    FALSE
#>  4 14865 2025-04-10 13:57:00      50.9      2.90 West-Vlaand… Ieper        FALSE
#>  5 14866 2025-04-10 00:00:00      51.2      3.20 West-Vlaand… Brugge       FALSE
#>  6 14867 2025-04-10 20:29:00      50.8      4.92 Vlaams Brab… Tienen       FALSE
#>  7 14868 2025-04-10 20:01:00      51.1      3.56 Oost-Vlaand… Lievegem     FALSE
#>  8 14869 2025-04-10 18:53:00      50.9      5.38 Limburg      Hasselt      FALSE
#>  9 14870 2025-04-10 17:40:00      51.1      4.46 Antwerpen    Kontich      FALSE
#> 10 14871 2025-04-10 16:07:00      50.9      4.36 Vlaams Brab… Grimbergen   FALSE
#> # ℹ 22,643 more rows
#> # ℹ 20 more variables: nest_status <chr>, eradication_date <date>,
#> #   eradication_result <chr>, images <chr>, nest_type <chr>,
#> #   nest_location <chr>, nest_height <chr>, nest_size <chr>,
#> #   queen_present <lgl>, moth_present <lgl>, duplicate_nest <lgl>,
#> #   other_species_nest <lgl>, notes <lgl>, source <chr>, source_id <dbl>,
#> #   wn_id <dbl>, wn_validation_status <chr>, wn_cluster_id <dbl>, …
```
…
